<?xml version="1.0" encoding="utf-8"?>
<!-- Generator: Adobe Illustrator 18.0.0, SVG Export Plug-In . SVG Version: 6.00 Build 0)  -->
<!DOCTYPE svg PUBLIC "-//W3C//DTD SVG 1.1//EN" "http://www.w3.org/Graphics/SVG/1.1/DTD/svg11.dtd">
<svg version="1.1" id="Layer_1" xmlns="http://www.w3.org/2000/svg" xmlns:xlink="http://www.w3.org/1999/xlink" x="0px" y="0px"
	 viewBox="192.728 216.252 575.394 127.451" enable-background="new 192.728 216.252 575.394 127.451" xml:space="preserve">
<g>
	<path fill="#F16323" d="M718.551,246.003l25.007-6.102c0.279-0.076,0.244-0.328-0.073-0.566l-4.462-1.891
		c-0.305-0.231-0.386-0.52-0.157-0.637l7.573-3.985c0.188-0.091,0.097-0.345-0.186-0.546l-0.943-0.66
		c-0.287-0.195-0.673-0.284-0.863-0.191l-7.703,3.812c-0.238,0.114-0.675,0.023-0.972-0.206l-2.282-3.028
		c-0.294-0.213-0.665-0.271-0.832-0.119l-14.381,13.893C718.013,246.019,718.135,246.11,718.551,246.003z"/>
	<path fill="#3ABEBC" d="M720.5,250.036l34.4,11.322c0.467,0.142,0.731-0.051,0.602-0.429l-3.383-4.271
		c-0.114-0.348,0.142-0.584,0.573-0.513l14.954,2.312c0.386,0.061,0.579-0.165,0.421-0.51l-0.51-1.099
		c-0.14-0.328-0.584-0.637-0.957-0.703l-14.68-2.376c-0.416-0.061-0.846-0.398-0.954-0.731l0.781-3.297
		c-0.102-0.304-0.482-0.553-0.852-0.553l-30.403,0.568C720,249.757,720.008,249.879,720.5,250.036z"/>
	<path fill="#0C80C3" d="M766.565,296.838l0.787-1.479c0.243-0.444-0.016-1.183-0.551-1.643l-18.525-16.053
		c-0.47-0.406-0.607-1-0.313-1.335l5.378-1.754c0.257-0.308,0.063-0.81-0.437-1.114l-34.644-20.155
		c-0.449-0.279-0.571-0.193-0.292,0.167l24.172,32.522c0.422,0.535,1.043,0.637,1.389,0.241l1.208-6.268
		c0.314-0.363,0.957-0.311,1.446,0.114l18.944,16.713C765.672,297.284,766.321,297.3,766.565,296.838z"/>
	<path fill="#114A61" d="M723.391,293.143l-10.921-38.987c-0.094-0.406-0.287-0.434-0.429-0.064l-15.992,37.913
		c-0.285,0.757,0.157,1.409,0.986,1.439l9.063-3.307c0.765,0.043,1.343,0.67,1.295,1.405L706.19,311.4
		c0.692,0.807,1.416,1.456,2.629,1.421c0.76-0.013,2.262-0.249,2.97-0.901l0.893-20.146c0.03-0.719,0.66-1.292,1.403-1.254
		l8.317,3.873C723.124,294.432,723.576,293.858,723.391,293.143z"/>
	<path fill="#3ABEBC" d="M706.424,251.273l-47.964,12.122c-0.865,0.244-1.275,0.82-0.896,1.292l8.048,3.416
		c0.394,0.479,0.081,1.18-0.695,1.558l-24.767,11.695c-0.259,1.251-0.319,2.708,0.432,3.808c0.356,0.51,0.827,0.812,1.351,0.984
		l25.809-13.022c0.779-0.411,1.744-0.315,2.165,0.18l1.068,8.076c0.435,0.554,1.366,0.53,2.044-0.043l33.694-29.807
		C707.048,251.254,706.927,251.138,706.424,251.273z"/>
	<path fill="#0C80C3" d="M704.86,246.912l-39.099-12.995c-0.571-0.172-1.216-0.058-1.419,0.267l0.825,4.231
		c-0.216,0.355-0.932,0.559-1.597,0.452l-26.167-4.378c-0.751-0.129-1.657,0.064-2.023,0.437l-1.211,1.254
		c-0.378,0.378-0.041,0.794,0.736,0.924l27.07,4.353c0.686,0.099,1.059,0.508,0.83,0.896l-6.357,4.117
		c-0.279,0.426,0.142,0.802,0.929,0.809l47.438-0.086C705.36,247.196,705.383,247.072,704.86,246.912z"/>
	<path fill="#83C341" d="M675.267,216.709l9.833,8.754c0.278,0.251,0.152,0.536-0.284,0.637l-6.569-0.071
		c-0.469,0.102-0.556,0.381-0.177,0.614l29.593,17.287c0.422,0.254,0.554,0.208,0.31-0.119l-14.654-20.571
		c-0.188-0.239-0.649-0.373-1.035-0.284l-2.977,2.101c-0.408,0.107-0.972-0.018-1.259-0.259l-9.764-8.546"/>
	<path fill="#0C80C3" d="M713.721,218.126l-0.586,7.066c-0.016,0.216-0.355,0.307-0.771,0.223l-4.563-2.099
		c-0.406-0.091-0.701,0.018-0.645,0.238l6.03,19.919c0.091,0.338,0.256,0.374,0.386,0.071l7.873-16.706
		c0.081-0.195-0.178-0.416-0.559-0.507l-4.246,0.056c-0.401-0.094-0.724-0.345-0.716-0.558l0.322-7.071"/>
	<g>
		<path fill="#114A61" d="M195.514,309.035c-0.284-1.022-0.91-1.248-1.933-1.248h-0.853v-4.889h3.24
			c2.841,0,4.262,0.568,4.944,3.297l6.194,25.8c0.512,2.159,0.796,4.264,0.796,4.264h0.113c0,0,0.341-2.049,0.967-4.264l8.07-28.982
			h5.114l7.502,28.982c0.568,2.215,0.852,4.264,0.852,4.264h0.113c0,0,0.229-2.104,0.74-4.264l6.307-25.8
			c0.683-2.729,2.046-3.297,4.887-3.297h3.24v4.889h-0.853c-1.022,0-1.647,0.226-1.931,1.248l-8.808,33.984h-6.593l-6.82-25.345
			c-0.681-2.614-1.136-5.513-1.136-5.513h-0.114c0,0-0.568,2.898-1.307,5.454l-7.274,25.403h-6.648L195.514,309.035z"/>
		<path fill="#114A61" d="M260.023,307.787h-3.693v-4.889h23.583c2.557,0,3.637,1.081,3.637,3.637v5.059h-5.171v-2.559
			c0-0.85-0.455-1.248-1.25-1.248h-11.422v12.558h14.037v4.889h-14.037v11.649c0,0.795,0.454,1.249,1.25,1.249h11.707
			c0.796,0,1.25-0.454,1.25-1.249v-2.559h5.228v5.059c0,2.559-1.08,3.637-3.637,3.637H263.66c-2.557,0-3.637-1.078-3.637-3.637
			V307.787z"/>
		<path fill="#114A61" d="M301.915,307.787h-3.694v-4.889h17.162c6.763,0,11.649,3.751,11.649,10.232
			c0,4.375-2.33,7.329-5.001,8.637v0.114c4.263,1.248,6.592,5.229,6.592,9.716c0,7.558-5.797,11.423-12.899,11.423h-10.172
			c-2.557,0-3.637-1.078-3.637-3.637V307.787z M315.44,319.776c3.523,0,5.796-2.556,5.796-6.081c0-3.522-2.159-5.908-5.91-5.908
			h-7.728v11.989L315.44,319.776L315.44,319.776z M308.847,338.132h7.16c4.263,0,6.763-2.725,6.763-6.817
			c0-4.094-2.67-6.878-6.763-6.878h-8.41v12.446C307.597,337.678,308.052,338.132,308.847,338.132z"/>
		<path fill="#114A61" d="M352.842,338.132h0.795c1.023,0,1.535-0.225,1.876-1.249l12.559-33.984h5.967l12.558,33.984
			c0.341,1.023,0.91,1.249,1.875,1.249h0.853v4.888h-3.183c-2.842,0-3.75-0.683-4.66-3.297l-3.011-8.238h-14.775l-3.013,8.238
			c-0.965,2.614-1.875,3.297-4.717,3.297h-3.125L352.842,338.132L352.842,338.132z M377.051,326.711l-4.375-12.219
			c-0.739-2.103-1.591-5.627-1.591-5.627h-0.113c0,0-0.795,3.523-1.535,5.627l-4.376,12.219H377.051z"/>
		<path fill="#114A61" d="M405.473,307.787h-3.693v-4.889h16.252c12.218,0,20.288,7.333,20.288,20.005
			c0,12.729-8.07,20.116-20.288,20.116h-8.923c-2.557,0-3.637-1.078-3.637-3.637L405.473,307.787L405.473,307.787z M412.407,338.132
			h5.228c8.921,0,14.775-5.34,14.775-15.229c0-9.832-5.91-15.116-14.775-15.116h-6.478v29.096
			C411.157,337.678,411.611,338.132,412.407,338.132z"/>
		<path fill="#114A61" d="M447.306,309.035c-0.341-1.022-0.909-1.248-1.875-1.248h-0.796v-4.889h3.183
			c2.841,0,3.807,0.627,4.717,3.297l8.808,24.721c0.739,2.16,1.534,5.513,1.534,5.513h0.114c0,0,0.739-3.353,1.534-5.513
			l8.809-24.721c0.966-2.67,1.875-3.297,4.717-3.297h3.183v4.889h-0.797c-1.022,0-1.534,0.226-1.874,1.248l-12.617,33.984h-6.023
			L447.306,309.035z"/>
		<path fill="#114A61" d="M493.972,338.132h3.922v-30.345h-3.922v-4.889h13.241v4.889h-3.921v30.345h3.921v4.888h-13.241V338.132z"
			/>
		<path fill="#114A61" d="M526.822,333.7c0,0,4.091,4.83,10.061,4.83c3.749,0,6.873-2.272,6.873-5.967
			c0-8.411-19.376-7.104-19.376-19.607c0-6.022,5.284-10.738,12.843-10.738c4.262,0,11.421,1.931,11.421,7.386v3.297h-5.228v-1.876
			c0-2.102-3.011-3.637-6.193-3.637c-4.319,0-7.046,2.386-7.046,5.398c0,8.127,19.32,6.31,19.32,19.492
			c0,6.137-4.771,11.424-12.732,11.424c-8.522,0-13.294-5.968-13.294-5.968L526.822,333.7z"/>
		<path fill="#114A61" d="M579.451,302.219c11.594,0,20.629,8.921,20.629,20.456c0,11.82-9.035,21.028-20.629,21.028
			c-11.592,0-20.568-9.208-20.568-21.028C558.883,311.14,567.859,302.219,579.451,302.219z M579.451,338.36
			c8.126,0,14.72-6.82,14.72-15.686c0-8.581-6.594-15.172-14.72-15.172c-8.125,0-14.66,6.591-14.66,15.172
			C564.791,331.54,571.326,338.36,579.451,338.36z"/>
		<path fill="#114A61" d="M612.988,307.787h-3.69v-4.889h17.503c7.045,0,11.989,4.435,11.989,11.764
			c0,6.706-4.376,10.003-7.218,10.627v0.114c0,0,1.025,0.51,1.705,1.817l4.833,9.603c0.568,1.196,1.477,1.308,2.84,1.308h0.738
			v4.888h-2.784c-3.124,0-4.262-0.398-5.571-3.013l-5.454-10.797c-1.023-1.875-1.761-2.159-3.977-2.159h-5.229v15.969h-5.685
			L612.988,307.787L612.988,307.787z M626.06,322.165c4.319,0,6.878-2.787,6.878-7.274c0-4.489-2.559-7.103-6.762-7.103h-7.502
			v14.378h7.386V322.165z"/>
		<path fill="#114A61" d="M659.485,333.7c0,0,4.091,4.83,10.056,4.83c3.751,0,6.878-2.272,6.878-5.967
			c0-8.411-19.38-7.104-19.38-19.607c0-6.022,5.286-10.738,12.845-10.738c4.262,0,11.424,1.931,11.424,7.386v3.297h-5.228v-1.876
			c0-2.102-3.016-3.637-6.195-3.637c-4.32,0-7.048,2.386-7.048,5.398c0,8.127,19.321,6.31,19.321,19.492
			c0,6.137-4.773,11.424-12.727,11.424c-8.525,0-13.3-5.968-13.3-5.968L659.485,333.7z"/>
	</g>
</g>
</svg>
